Plotting in R for Animal Science Workshop - 3 Data wrangling
…
Or, we might see that information about the same animal is spread across multiple rows in a long format:

Code

```{r}
#| code-fold: true
pivot_longer(df_data,
             cols = c(Timepoint, Variable), 
             names_to = 'name', 
             values_to = 'value')
```

# A tibble: 24 × 4
   Animal_ID Treatment_Group name      value
       <dbl> <chr>           <chr>     <dbl>
 1        11 Treatment A     Timepoint   1  
 2        11 Treatment A     Variable    1  
 3        12 Treatment A     Timepoint   1  
 4        12 Treatment A     Variable    1.2
 5        21 Treatment B     Timepoint   1  
 6        21 Treatment B     Variable    1  
 7        22 Treatment B     Timepoint   1  
 8        22 Treatment B     Variable    1.2
 9        11 Treatment A     Timepoint   2  
10        11 Treatment A     Variable    2  
# ℹ 14 more rows
…
Note that the $ is a base R way of accessing the values within a column

To fix these column names we can either:

Tell read_csv what names to use:

```{r}
read_csv(my_filepath, 
         col_names = c("studyName", 'sample_number', 'Species'), 
         show_col_types = FALSE # this stops the message about cols printing
         )
```

# A tibble: 345 × 17
   studyName sample_number Species     X4    X5    X6    X7    X8    X9    X10  
   <chr>     <chr>         <chr>       <chr> <chr> <chr> <chr> <chr> <chr> <chr>
 1 studyName Sample Number Species     Regi… Isla… Stage Indi… Clut… Date… Culm…
 2 PAL0708   1             Adelie Pen… Anve… Torg… Adul… N1A1  Yes   2007… 39.1 
 3 PAL0708   2             Adelie Pen… Anve… Torg… Adul… N1A2  Yes   2007… 39.5 
 4 PAL0708   3             Adelie Pen… Anve… Torg… Adul… N2A1  Yes   2007… 40.3 
 5 PAL0708   4             Adelie Pen… Anve… Torg… Adul… N2A2  Yes   2007… <NA> 
 6 PAL0708   5             Adelie Pen… Anve… Torg… Adul… N3A1  Yes   2007… 36.7 
 7 PAL0708   6             Adelie Pen… Anve… Torg… Adul… N3A2  Yes   2007… 39.3 
 8 PAL0708   7             Adelie Pen… Anve… Torg… Adul… N4A1  No    2007… 38.9 
 9 PAL0708   8             Adelie Pen… Anve… Torg… Adul… N4A2  No    2007… 39.2 
10 PAL0708   9             Adelie Pen… Anve… Torg… Adul… N5A1  Yes   2007… 34.1 
# ℹ 335 more rows
# ℹ 7 more variables: X11 <chr>, X12 <chr>, X13 <chr>, X14 <chr>, X15 <chr>,
#   X16 <chr>, X17 <chr>
…
It’s also works well with tidyselect functions, like we did using select(). But this time we need the across() function, which is a little more advanced but super useful. See https://r4ds.hadley.nz/iteration.html

Here we will use the penguins dataset again.

If we wanted to divide all numeric columns by 100 and then round to 1 digits we could do:

```{r}
penguins %>% 
  mutate(
    across(where(is.numeric), ~ .x / 100),
    across(where(is.numeric), ~round(.x, digits = 1))
    )
```

# A tibble: 344 × 8
   species island    bill_length_mm bill_depth_mm flipper_length_mm body_mass_g
   <fct>   <fct>              <dbl>         <dbl>             <dbl>       <dbl>
 1 Adelie  Torgersen            0.4           0.2               1.8        37.5
 2 Adelie  Torgersen            0.4           0.2               1.9        38  
 3 Adelie  Torgersen            0.4           0.2               2          32.5
 4 Adelie  Torgersen           NA            NA                NA          NA  
 5 Adelie  Torgersen            0.4           0.2               1.9        34.5
 6 Adelie  Torgersen            0.4           0.2               1.9        36.5
 7 Adelie  Torgersen            0.4           0.2               1.8        36.2
 8 Adelie  Torgersen            0.4           0.2               2          46.8
 9 Adelie  Torgersen            0.3           0.2               1.9        34.8
10 Adelie  Torgersen            0.4           0.2               1.9        42.5
# ℹ 334 more rows
# ℹ 2 more variables: sex <fct>, year <dbl>
…
